<svg xmlns="http://www.w3.org/2000/svg" width="59" height="53" viewBox="0 0 59 53">
    <g fill="#000" fill-rule="evenodd">
        <path d="M9.39 4.838c-.377.673-.159 1.538.487 1.93.646.393 1.475.166 1.852-.508 3.248-5.644 10.08-3.386 13.436.689 2.88 3.5 3.811 7.823 3.757 12.36-.097 7.811-2.815 19.088-8.564 24.574-2.945 2.81-7.373 4.267-11.239 2.833C4.442 44.99 2.98 38.871 2.894 34.3c-.152-8.376 2.458-16.436 5.868-23.886.747-1.625-1.591-3.059-2.339-1.422-4.547 9.945-9.42 24.077-4.103 34.676 4.775 9.516 16.479 7.27 22.012-.191 6.301-8.523 9.95-24.292 5.413-34.304C26.226 1.36 14.695-4.6 9.39 4.838M43.706 27.654a5.487 5.487 0 0 0-.116-8.009 6.112 6.112 0 0 0-7.96 0 1.557 1.557 0 0 0-.163.174l-.14.152a6.103 6.103 0 0 0 .268 7.822 5.461 5.461 0 0 0 8.111-.14zm-6.333-5.696c.043-.06.082-.121.116-.186l.186-.128c2.498-2.162 6.485 1.267 3.974 3.964a2.568 2.568 0 0 1-3.893.21 3.197 3.197 0 0 1-.383-3.86zM54.343 13.014c.727-1.647-2.11-2.37-2.824-.734a227.658 227.658 0 0 0-12.893 38.203c-.186.668.169 1.364.835 1.642.666.277 1.446.053 1.837-.53l1.993-3.004c.249-.33.318-.753.186-1.14a1.315 1.315 0 0 0-.854-.819 227.805 227.805 0 0 1 11.72-33.618zM58.598 38.233c-1.289-2.675-4.314-4.335-7.559-4.147-.527.041-.99.328-1.22.755-.367.15-.656.42-.807.755-1.22 2.593-2.32 6.028 0 8.414 2.022 1.677 5.066 1.89 7.354.515 2.288-1.376 3.222-3.98 2.256-6.292h-.024zM54.336 42.4c-1.22.57-2.881.504-3.48-.831-.598-1.335.135-3.283.806-4.76 1.715.025 3.273.902 4.042 2.276a2.2 2.2 0 0 1 .12 1.929c-.259.63-.797 1.136-1.488 1.397v-.01z"/>
    </g>
</svg>
